…
Now that the data is cleaned, we can use the model to make predictions
on this new data using the predict() function.

    test_results <- predict(logRegModel, newdata = test_clean) # use model to make predictions on test data

    as.tibble(test_results)                                    # Make test_results object a tibble

    ## Warning: `as.tibble()` was deprecated in tibble 2.0.0.
    ## ℹ Please use `as_tibble()` instead.
    ## ℹ The signature and semantics have changed, see `?as_tibble`.
    ## This warning is displayed once every 8 hours.
    ## Call `lifecycle::last_lifecycle_warnings()` to see where this warning was
    ## generated.

    ## # A tibble: 418 × 3
    ##    prob.0 prob.1 response
    ##     <dbl>  <dbl> <fct>   
    ##  1  0.918 0.0822 0       
    ##  2  0.591 0.409  0       
    ##  3  0.912 0.0877 0       
    ##  4  0.893 0.107  0       
    ##  5  0.407 0.593  1       
    ##  6  0.834 0.166  0       
    ##  7  0.369 0.631  1       
    ##  8  0.797 0.203  0       
    ##  9  0.269 0.731  1       
    ## 10  0.911 0.0893 0       
    ## # ℹ 408 more rows
…
